<?xml version="1.0" encoding="UTF-8" standalone="no"?>
<svg xmlns:dc="http://purl.org/dc/elements/1.1/" xmlns:cc="http://creativecommons.org/ns#" xmlns:rdf="http://www.w3.org/1999/02/22-rdf-syntax-ns#" xmlns:svg="http://www.w3.org/2000/svg" xmlns="http://www.w3.org/2000/svg" xmlns:sodipodi="http://sodipodi.sourceforge.net/DTD/sodipodi-0.dtd" xmlns:inkscape="http://www.inkscape.org/namespaces/inkscape" inkscape:version="1.0 (4035a4f, 2020-05-01)" height="72.05574" width="200" sodipodi:docname="Fridolin logo cafe.svg" id="svg38" version="1.1" viewBox="0 0 200.00001 72.055742">
  <metadata id="metadata42">
    <rdf:RDF>
      <cc:Work rdf:about="">
        <dc:format>image/svg+xml</dc:format>
        <dc:type rdf:resource="http://purl.org/dc/dcmitype/StillImage"/>
        <dc:title>Asset 2</dc:title>
      </cc:Work>
    </rdf:RDF>
  </metadata>
  <sodipodi:namedview inkscape:current-layer="Capa_1" inkscape:window-maximized="0" inkscape:window-y="0" inkscape:window-x="0" inkscape:cy="82.475" inkscape:cx="228.93" inkscape:zoom="2.4330581" fit-margin-bottom="0" fit-margin-right="0" fit-margin-left="0" fit-margin-top="0" showgrid="false" id="namedview40" inkscape:window-height="900" inkscape:window-width="1440" inkscape:pageshadow="2" inkscape:pageopacity="0" guidetolerance="10" gridtolerance="10" objecttolerance="10" borderopacity="1" bordercolor="#666666" pagecolor="#ffffff"/>
  <defs id="defs12">
    <style id="style10">.cls-1{fill:#682f24;}</style>
  </defs>
  <title id="title14">Asset 2</title>
  <g transform="scale(0.43683383)" data-name="Layer 2" id="Layer_2">
    <g data-name="Capa 1" id="Capa_1">
      <path id="path16" d="m 40.14,102.13 c 1.28,-4.35 4.54,-5.56 8.65,-5.54 7,0 14,0 21,0 0.46,0 0.92,0 1.37,0.05 2.91,0.24 4.86,1.79 5.35,4.62 a 12.55,12.55 0 0 1 0,4.49 c -0.59,3 -2.53,4.52 -5.64,4.58 -4,0.08 -8.06,0.09 -12.09,0.07 -1,0 -1.4,0.27 -1.37,1.32 0.06,2 0.06,4 0,6 0,1.06 0.29,1.46 1.41,1.44 3.11,-0.07 6.23,0.09 9.34,0 5.24,-0.24 7.24,3.35 6.76,7.92 -0.45,4.25 -2.56,6 -6.83,6 -3.11,0 -6.23,0 -9.34,0 -1,0 -1.34,0.32 -1.33,1.34 0,4.62 0,9.25 0,13.88 0,4.63 -2.29,7.06 -6.83,7.44 a 23.78,23.78 0 0 1 -2.72,0.11 c -3.83,-0.12 -6.68,-1.63 -7.75,-5.59 z" class="cls-1"/>
      <path id="path18" d="m 388.14,122.82 a 7.47,7.47 0 0 0 0.15,-1 q 0,-8.79 0,-17.59 c 0,-3 0.85,-5.69 4,-6.86 a 12.74,12.74 0 0 1 9.63,0.1 6.09,6.09 0 0 1 3.74,6.05 q 0.06,22.74 0,45.48 a 6.4,6.4 0 0 1 -5.3,6.44 c -4.69,1 -8.65,0.11 -11.87,-3.84 -5.92,-7.27 -12.05,-14.37 -18.09,-21.55 a 2.33,2.33 0 0 1 -0.27,-0.63 l -0.52,0.23 c 0,0.69 0,1.38 0,2.08 q 0,8.24 0,16.47 c 0,4.4 -2.2,6.88 -6.56,7.48 a 13.84,13.84 0 0 1 -6.48,-0.52 5.91,5.91 0 0 1 -4.24,-5.5 c -0.08,-0.91 -0.11,-1.83 -0.11,-2.74 q 0,-21 0,-41.9 a 22.66,22.66 0 0 1 0.12,-2.46 5.48,5.48 0 0 1 3,-4.74 c 4,-1.82 8,-1.92 11.75,0.54 a 10.55,10.55 0 0 1 2.06,2.17 q 9.19,10.92 18.36,21.85 a 4.3,4.3 0 0 0 0.63,0.44 z" class="cls-1"/>
      <path id="path20" d="M 247.13,156.54 A 33.44,33.44 0 0 1 230.28,152.19 27.88,27.88 0 0 1 216,130.73 c -0.84,-6.55 -0.39,-13 2.5,-19 a 27.76,27.76 0 0 1 20.11,-15.89 c 9.71,-2.05 19.13,-1.3 27.58,4.53 a 27.78,27.78 0 0 1 12.13,20.3 c 0.78,6.36 0.36,12.62 -2.4,18.51 -4.14,8.83 -11.14,14.17 -20.59,16.29 -2.65,0.53 -5.45,0.71 -8.2,1.07 z m -14.71,-30.86 c 0.13,1.13 0.17,2.28 0.39,3.4 2.51,12.86 16.08,14.35 22.85,9.43 5.14,-3.74 6.77,-9 6.06,-15.22 -1.15,-10 -10.26,-15.7 -20.29,-12.07 -5.5,1.98 -8.94,7.78 -9.02,14.46 z" class="cls-1"/>
      <path id="path22" d="m 120.14,130.75 c 2.94,3.85 5.82,7.58 8.64,11.34 1.54,2 2.44,4.34 1.7,6.92 -0.63,2.19 -2.34,3.59 -4.18,4.73 a 16.83,16.83 0 0 1 -4.09,1.84 4.94,4.94 0 0 1 -5.36,-1.56 c -2.16,-2.53 -4.19,-5.19 -6.2,-7.85 -3,-4 -6,-8.07 -9,-12.1 a 3.94,3.94 0 0 0 -0.75,-0.53 c 0,0.64 0,1.06 0,1.48 q 0,6.8 0,13.6 c 0,3.81 -1.94,6.15 -5.69,6.93 a 14.43,14.43 0 0 1 -6.77,-0.19 5.88,5.88 0 0 1 -4.58,-4.77 14.49,14.49 0 0 1 -0.25,-2.72 q 0,-21.64 0,-43.27 c 0,-5.24 2.38,-7.88 7.61,-8 7.32,-0.13 14.66,-0.19 22,0 6.39,0.18 10.66,3.94 13.64,9.25 3.94,7 2.54,16.69 -3.09,22.06 -1.14,1.09 -2.37,1.86 -3.63,2.84 z m -19.28,-15.52 c 0,1.92 0,3.84 0,5.76 0,0.85 0.23,1.25 1.18,1.18 1.27,-0.09 2.58,0.13 3.83,-0.06 1.68,-0.26 3.55,-0.41 4.94,-1.26 2.77,-1.69 3,-4.55 2.48,-7.52 a 5.29,5.29 0 0 0 -4.48,-4.58 65.34,65.34 0 0 0 -6.68,-0.41 c -1,-0.06 -1.31,0.31 -1.28,1.26 0.04,1.89 0,3.76 0,5.63 z" class="cls-1"/>
      <path id="path24" d="m 177.9,96.6 c 2.33,0 4.67,0 7,0 10.67,-0.21 18.39,5.73 22.23,15 2.12,5.12 3.49,10.44 3.07,16 -0.67,9 -3.25,17.27 -10.42,23.35 a 21.79,21.79 0 0 1 -13.93,5 c -5.23,0.13 -10.47,0.07 -15.71,0 a 18.56,18.56 0 0 1 -4.33,-0.58 c -3,-0.78 -4.75,-3.26 -4.75,-6.71 q 0,-14.69 0,-29.39 0,-7.55 0,-15.1 c 0,-4.56 2.39,-7.23 7,-7.45 3.29,-0.16 6.59,0 9.88,0 z m 0.46,29.3 c 0,5 0,10.07 0,15.1 0,3.53 -0.17,3 3.18,2.79 6,-0.39 9.93,-3.63 11.7,-10 a 32.07,32.07 0 0 0 0.52,-13.74 c -0.57,-3.58 -1.84,-6.92 -4.84,-9.25 -2.67,-2.07 -5.81,-2.47 -9.08,-2.45 -1.14,0 -1.5,0.35 -1.49,1.5 0.03,5.33 0,10.69 0,16.04 z" class="cls-1"/>
      <path id="path26" d="m 284.78,126.26 c 0,-7.24 0,-14.47 0,-21.71 a 12.81,12.81 0 0 1 0.31,-3 5.52,5.52 0 0 1 3.26,-4 13,13 0 0 1 9.89,-0.12 5.76,5.76 0 0 1 3.74,5 17,17 0 0 1 0.1,2.19 q 0,17.79 0,35.59 c 0,1.81 0,1.81 1.8,1.81 h 11.54 c 3.46,0 5.2,1.36 5.71,4.77 a 14.67,14.67 0 0 1 0,4.37 c -0.5,3.22 -2.14,4.73 -5.53,4.75 -8,0 -16,0 -24,-0.25 -4.61,-0.16 -6.84,-2.88 -6.85,-7.55 q 0.02,-10.93 0.03,-21.85 z" class="cls-1"/>
      <path id="path28" d="m 328.15,126.32 q 0,-11.12 0,-22.25 c 0,-4.51 2.39,-7.12 6.88,-7.39 a 20.17,20.17 0 0 1 4.64,0.2 c 3.77,0.66 5.75,2.92 5.76,6.7 q 0.07,22.59 0,45.19 c 0,3.78 -2,6 -5.69,6.79 a 14.58,14.58 0 0 1 -6.78,-0.17 6.32,6.32 0 0 1 -4.8,-6.54 c -0.03,-7.52 -0.01,-15.02 -0.01,-22.53 z" class="cls-1"/>
      <path id="path30" d="m 136.85,126.18 q 0,-10.51 0,-21 c 0,-6.09 2.48,-8.57 8.6,-8.54 a 15.28,15.28 0 0 1 4.06,0.48 6.21,6.21 0 0 1 4.68,6.35 q 0,22.73 0,45.46 a 6.16,6.16 0 0 1 -5.58,6.55 20.24,20.24 0 0 1 -6.08,0 c -3.63,-0.57 -5.44,-2.86 -5.63,-6.52 q -0.06,-1.1 -0.06,-2.2 0.01,-10.28 0.01,-20.58 z" class="cls-1"/>
      <path id="path32" d="m 8.63,132.63 c 1.43,-64 98,-120.2 222,-120.2 111.29,0 207.56,38.84 227.21,101.58 C 449.93,50.34 350.6,0 229.19,0 102.61,0 0,54.72 0,122.23 a 73,73 0 0 0 14.41,42.72 c 0,0 -6.17,-15.19 -5.78,-32.32 z" class="cls-1"/>
      <path id="path34" d="m 429.94,98.49 a 9.47,9.47 0 1 1 -9.43,-9.21 9.25,9.25 0 0 1 9.43,9.21 z m -16.56,0 a 7.13,7.13 0 0 0 7.19,7.36 7.05,7.05 0 0 0 7,-7.3 7.11,7.11 0 1 0 -14.21,-0.06 z m 5.67,4.83 h -2.13 v -9.21 a 18.69,18.69 0 0 1 3.54,-0.28 5.73,5.73 0 0 1 3.2,0.67 2.55,2.55 0 0 1 0.9,2 2.36,2.36 0 0 1 -1.91,2.13 v 0.11 a 2.72,2.72 0 0 1 1.68,2.25 7,7 0 0 0 0.67,2.3 h -2.3 a 7.87,7.87 0 0 1 -0.73,-2.25 c -0.17,-1 -0.73,-1.46 -1.91,-1.46 h -1 z m 0.06,-5.22 h 1 c 1.18,0 2.13,-0.39 2.13,-1.35 0,-0.96 -0.62,-1.4 -2,-1.4 a 5.16,5.16 0 0 0 -1.18,0.11 z" class="cls-1"/>
    </g>
  </g>
</svg>